﻿
DisplayName "MS Fish Main Deck"



EVENT   1
 PAGE   1
  0()



EVENT   2
 PAGE   1
  0()



EVENT   3
 PAGE   1
  0()



EVENT   4
 PAGE   1
  0()



EVENT   5
 PAGE   1
  0()



EVENT   6
 PAGE   1
  0()



EVENT   7
 PAGE   1
  0()



EVENT   8
 PAGE   1
  0()



EVENT   9
 PAGE   1
  0()



EVENT   10
 PAGE   1
  0()



EVENT   11
 PAGE   1
  0()



EVENT   12
 PAGE   1
  0()



EVENT   13
 PAGE   1
  0()



EVENT   14
 PAGE   1
  0()



EVENT   15
 PAGE   1
  0()



EVENT   16
 PAGE   1
  0()



EVENT   17
 PAGE   1
  0()



EVENT   18
 PAGE   1
  0()



EVENT   19
 PAGE   1
  0()



EVENT   20
 PAGE   1
  0()



EVENT   21
 PAGE   1
  0()



EVENT   22
 PAGE   1
  0()



EVENT   23
 PAGE   1
  0()



EVENT   24
 PAGE   1
  0()



EVENT   25
 PAGE   1
  0()



EVENT   26
 PAGE   1
  0()



EVENT   27
 PAGE   1
  0()



EVENT   28
 PAGE   1
  0()



EVENT   29
 PAGE   1
  0()



EVENT   30
 PAGE   1
  0()



EVENT   31
 PAGE   1
  0()



EVENT   32
 PAGE   1
  0()



EVENT   33
 PAGE   1
  0()



EVENT   34
 PAGE   1
  0()



EVENT   35
 PAGE   1
  0()



EVENT   36
 PAGE   1
  0()



EVENT   37
 PAGE   1
  0()



EVENT   38
 PAGE   1
  0()



EVENT   39
 PAGE   1
  0()



EVENT   40
 PAGE   1
  0()



EVENT   41
 PAGE   1
  0()



EVENT   42
 PAGE   1
  0()



EVENT   43
 PAGE   1
  0()



EVENT   44
 PAGE   1
  0()



EVENT   45
 PAGE   1
  0()



EVENT   46
 PAGE   1
  0()



EVENT   47
 PAGE   1
  0()



EVENT   48
 PAGE   1
  0()



EVENT   49
 PAGE   1
  0()



EVENT   50
 PAGE   1
  0()



EVENT   51
 PAGE   1
  281(0)
  250(bytes(0x04,0x08,0x6f,0x3a,0x0c,0x52,0x50,0x47,0x3a,0x3a,0x53,0x45,0x08,0x3a,0x0a,0x40,0x6e,0x61,0x6d,0x65,0x49,0x22,0x09,0x4d,0x6f,0x76,0x65,0x06,0x3a,0x06,0x45,0x54,0x3a,0x0b,0x40,0x70,0x69,0x74,0x63,0x68,0x69,0x69,0x3a,0x0c,0x40,0x76,0x6f,0x6c,0x75,0x6d,0x65,0x69,0x55))
  TeleportPlayer(0,743,12,32,0,0)
  0()



EVENT   52
 PAGE   1
  281(0)
  If(6,-1,2)
   250(bytes(0x04,0x08,0x6f,0x3a,0x0c,0x52,0x50,0x47,0x3a,0x3a,0x53,0x45,0x08,0x3a,0x0a,0x40,0x6e,0x61,0x6d,0x65,0x49,0x22,0x09,0x4d,0x6f,0x76,0x65,0x06,0x3a,0x06,0x45,0x54,0x3a,0x0b,0x40,0x70,0x69,0x74,0x63,0x68,0x69,0x69,0x3a,0x0c,0x40,0x76,0x6f,0x6c,0x75,0x6d,0x65,0x69,0x55))
   TeleportPlayer(0,743,20,16,0,0)
   0()
  EndIf()
  0()



EVENT   53
 PAGE   1
  // condition: switch 1195 is ON
  PictureDisplay(5,"80_mermaid_st01",0,0,0,0,100,100,0,0)
  PictureMove(5,null,0,0,0,0,100,100,255,0,30,true)
  If(1,3195,0,100,1)
   If(1,4195,0,0,0)
    ChangeVariable(4195,4195,0,0,1)
    ShowMessageFace("mermaid_fc1",3,0,2,1)
    ShowMessage("\\n<メーヌ (Affection:\\V[3195])>これを受け取って下さい……")
    250(bytes(0x04,0x08,0x6f,0x3a,0x0c,0x52,0x50,0x47,0x3a,0x3a,0x53,0x45,0x08,0x3a,0x0a,0x40,0x6e,0x61,0x6d,0x65,0x49,0x22,0x0a,0x49,0x74,0x65,0x6d,0x31,0x06,0x3a,0x06,0x45,0x54,0x3a,0x0b,0x40,0x70,0x69,0x74,0x63,0x68,0x69,0x69,0x3a,0x0c,0x40,0x76,0x6f,0x6c,0x75,0x6d,0x65,0x69,0x55))
    ChangeInventoryArmor(1026,0,0,1,false)
    0()
   EndIf()
   0()
  EndIf()
  If(1,3195,0,500,1)
   If(1,4195,0,1,0)
    ChangeVariable(4195,4195,0,0,2)
    ShowMessageFace("mermaid_fc1",3,0,2,2)
    ShowMessage("\\n<メーヌ (Affection:\\V[3195])>これを受け取って下さい……")
    250(bytes(0x04,0x08,0x6f,0x3a,0x0c,0x52,0x50,0x47,0x3a,0x3a,0x53,0x45,0x08,0x3a,0x0a,0x40,0x6e,0x61,0x6d,0x65,0x49,0x22,0x0a,0x49,0x74,0x65,0x6d,0x31,0x06,0x3a,0x06,0x45,0x54,0x3a,0x0b,0x40,0x70,0x69,0x74,0x63,0x68,0x69,0x69,0x3a,0x0c,0x40,0x76,0x6f,0x6c,0x75,0x6d,0x65,0x69,0x55))
    ChangeInventoryArmor(1258,0,0,1,false)
    0()
   EndIf()
   0()
  EndIf()
  If(1,3195,0,2000,1)
   If(1,4195,0,2,0)
    ChangeVariable(4195,4195,0,0,3)
    ShowMessageFace("mermaid_fc1",3,0,2,3)
    ShowMessage("\\n<メーヌ (Affection:\\V[3195])>これを受け取って下さい……")
    250(bytes(0x04,0x08,0x6f,0x3a,0x0c,0x52,0x50,0x47,0x3a,0x3a,0x53,0x45,0x08,0x3a,0x0a,0x40,0x6e,0x61,0x6d,0x65,0x49,0x22,0x0a,0x49,0x74,0x65,0x6d,0x31,0x06,0x3a,0x06,0x45,0x54,0x3a,0x0b,0x40,0x70,0x69,0x74,0x63,0x68,0x69,0x69,0x3a,0x0c,0x40,0x76,0x6f,0x6c,0x75,0x6d,0x65,0x69,0x55))
    ChangeInventoryArmor(1143,0,0,1,false)
    0()
   EndIf()
   0()
  EndIf()
  If(1,3195,0,4000,1)
   If(1,4195,0,3,0)
    ChangeVariable(4195,4195,0,0,4)
    ShowMessageFace("mermaid_fc1",3,0,2,4)
    ShowMessage("\\n<メーヌ (Affection:\\V[3195])>これを受け取って下さい……")
    250(bytes(0x04,0x08,0x6f,0x3a,0x0c,0x52,0x50,0x47,0x3a,0x3a,0x53,0x45,0x08,0x3a,0x0a,0x40,0x6e,0x61,0x6d,0x65,0x49,0x22,0x0a,0x49,0x74,0x65,0x6d,0x31,0x06,0x3a,0x06,0x45,0x54,0x3a,0x0b,0x40,0x70,0x69,0x74,0x63,0x68,0x69,0x69,0x3a,0x0c,0x40,0x76,0x6f,0x6c,0x75,0x6d,0x65,0x69,0x55))
    ChangeInventoryArmor(1406,0,0,1,false)
    0()
   EndIf()
   0()
  EndIf()
  355("actor_label_jump")
  ShowMessageFace("mermaid_fc1",3,0,2,5)
  ShowMessage("\\n<メーヌ (Affection:\\V[3195])>ここは実に暮らしやすいですね。")
  ShowMessage("バカンスに最適かと……")
  JumpToLabel("メニュー")
  DefineLabel("83")
  ShowMessageFace("mermaid_fc1",3,0,2,6)
  ShowMessage("\\n<メーヌ (Affection:\\V[3195])>空を飛べるというのは、羨ましいものですね……")
  ShowMessageFace("hapy_a_fc1",0,0,2,7)
  ShowMessage("\\n<Reina (Affection:\\V[3083])>そっちこそ、泳げるっていいな～♪")
  ShowMessageFace("mermaid_fc1",3,0,2,8)
  ShowMessage("\\n<メーヌ (Affection:\\V[3195])>少し体を交換して、自在に空を飛び回りたいものです。")
  ShowMessageFace("hapy_a_fc1",0,0,2,9)
  ShowMessage("\\n<Reina (Affection:\\V[3083])>あたしも、海の底まで潜ってみたいな～。")
  ShowMessage("お互い、持ってないものに憧れちゃうよね。")
  JumpToLabel("メニュー")
  DefineLabel("118")
  ShowMessageFace("mermaid_fc1",3,0,2,10)
  ShowMessage("\\n<メーヌ (Affection:\\V[3195])>メイアも、色々と大変だったみたいね。")
  ShowMessage("南海の女王になって、ハーレムを築いたんだって？")
  ShowMessageFace("meia_fc1",0,0,2,11)
  ShowMessage("\\n<メイア (Affection:\\V[3118])>洗脳されてしまって、あんな事を……")
  ShowMessage("お恥ずかしいです。")
  ShowMessageFace("mermaid_fc1",3,0,2,12)
  ShowMessage("\\n<メーヌ (Affection:\\V[3195])>私だったら、イケメンマッチョのハーレムを……")
  ShowMessage("いえいえ、なんでもないわ。")
  ShowMessageFace("meia_fc1",3,0,2,13)
  ShowMessage("\\n<メイア (Affection:\\V[3118])>イケメンマッチョのハーレムって……")
  ShowMessage("それ、ちょっと変態的じゃありません？")
  ShowMessageFace("mermaid_fc1",3,0,2,14)
  ShowMessage("\\n<メーヌ (Affection:\\V[3195])>あなたに言われたくないわよ……")
  JumpToLabel("メニュー")
  DefineLabel("324")
  ShowMessageFace("mermaid_fc1",3,0,2,15)
  ShowMessage("\\n<メーヌ (Affection:\\V[3195])>あなたは剣ばかりで、堅物ですよね……")
  ShowMessage("たまには恋でもした方が良いですよ？")
  ShowMessageFace("knight_mermaid_fc1",0,0,2,16)
  ShowMessage("\\n<メリル (Affection:\\V[3324])>恋など、戦士に必要ない……！")
  ShowMessageFace("mermaid_fc1",3,0,2,17)
  ShowMessage("\\n<メーヌ (Affection:\\V[3195])>そんなんじゃ、いざという時に困りますよ……")
  ShowMessageFace("knight_mermaid_fc1",2,0,2,18)
  ShowMessage("\\n<メリル (Affection:\\V[3324])>こ、困らない……！")
  JumpToLabel("メニュー")
  DefineLabel("328")
  ShowMessageFace("mermaid_fc1",3,0,2,19)
  ShowMessage("\\n<メーヌ (Affection:\\V[3195])>女王様！　共に戦える事、嬉しく思います。")
  ShowMessageFace("queenmermaid_fc1",0,0,2,20)
  ShowMessage("\\n<ローラ (Affection:\\V[3328])>人魚の同胞達のためにも……力を貸してもらうわ。")
  ShowMessageFace("mermaid_fc1",3,0,2,21)
  ShowMessage("\\n<メーヌ (Affection:\\V[3195])>はい！　人魚の歌で、みな誘惑してやりましょう！")
  ShowMessageFace("queenmermaid_fc1",0,0,2,22)
  ShowMessage("\\n<ローラ (Affection:\\V[3328])>味方も誘惑しないように、気を付けなさいね……")
  JumpToLabel("メニュー")
  DefineLabel("メニュー")
  StartLoop()
   355("unlimited_choices(11, [\"Give presents\",")
   655("\"Add to party\",")
   655("\"View present list\",\"Request\",")
   655("\"Never mind\"])")
   If(1,11,0,0,0)
    355("present_start(195)")
    0()
   EndIf()
   If(1,11,0,1,0)
    PictureClear(5)
    355("move_actor_ex(195)")
    EndEventProcessing()
    0()
   EndIf()
   If(1,11,0,2,0)
    ShowMessageFace("",0,0,2,23)
    ShowMessage("Affection       100:\\ia[1026]")
    ShowMessage("Affection       500:\\ia[1258]")
    ShowMessage("Affection     2000:\\ia[1143]")
    ShowMessage("Affection     4000:\\ia[1406]")
    0()
   EndIf()
   If(1,11,0,3,0)
    PictureClear(5)
    ShowMessageFace("",0,0,2,24)
    ShowMessage("Ask her for what? (Affection:\\V[3195])")
    ShowChoices(strings("Mermaid Paizuri(Affection:10)","Never mind"),2)
    IfPlayerPicksChoice(0,null)
     If(1,3195,0,10,1)
      355("call_novel_scene(4786)")
      EndEventProcessing()
      0()
     Else()
      ShowMessageFace("mermaid_fc1",2,0,2,25)
      ShowMessage("\\n<メーヌ (Affection:\\V[3195])>あまり気が向きません……")
      0()
     EndIf()
     0()
    IfPlayerPicksChoice(1,null)
     0()
    404()
    0()
   EndIf()
   If(1,11,0,4,1)
    PictureClear(5)
    EndEventProcessing()
    0()
   EndIf()
   0()
  EndLoop()
  0()
 PAGE   2
  // condition: party contains actor #195
  0()



EVENT   54
 PAGE   1
  // condition: switch 1197 is ON
  PictureDisplay(5,"80_k_mermaid_st01",0,0,0,0,100,100,0,0)
  PictureMove(5,null,0,0,0,0,100,100,255,0,30,true)
  If(1,3197,0,100,1)
   If(1,4197,0,0,0)
    ChangeVariable(4197,4197,0,0,1)
    ShowMessageFace("k_mermaid_fc1",1,0,2,1)
    ShowMessage("\\n<ロリッタ (Affection:\\V[3197])>はい、プレゼント！")
    250(bytes(0x04,0x08,0x6f,0x3a,0x0c,0x52,0x50,0x47,0x3a,0x3a,0x53,0x45,0x08,0x3a,0x0a,0x40,0x6e,0x61,0x6d,0x65,0x49,0x22,0x0a,0x49,0x74,0x65,0x6d,0x31,0x06,0x3a,0x06,0x45,0x54,0x3a,0x0b,0x40,0x70,0x69,0x74,0x63,0x68,0x69,0x69,0x3a,0x0c,0x40,0x76,0x6f,0x6c,0x75,0x6d,0x65,0x69,0x55))
    ChangeInventoryArmor(1016,0,0,1,false)
    0()
   EndIf()
   0()
  EndIf()
  If(1,3197,0,500,1)
   If(1,4197,0,1,0)
    ChangeVariable(4197,4197,0,0,2)
    ShowMessageFace("k_mermaid_fc1",1,0,2,2)
    ShowMessage("\\n<ロリッタ (Affection:\\V[3197])>はい、プレゼント！")
    250(bytes(0x04,0x08,0x6f,0x3a,0x0c,0x52,0x50,0x47,0x3a,0x3a,0x53,0x45,0x08,0x3a,0x0a,0x40,0x6e,0x61,0x6d,0x65,0x49,0x22,0x0a,0x49,0x74,0x65,0x6d,0x31,0x06,0x3a,0x06,0x45,0x54,0x3a,0x0b,0x40,0x70,0x69,0x74,0x63,0x68,0x69,0x69,0x3a,0x0c,0x40,0x76,0x6f,0x6c,0x75,0x6d,0x65,0x69,0x55))
    ChangeInventoryArmor(1017,0,0,1,false)
    0()
   EndIf()
   0()
  EndIf()
  If(1,3197,0,2000,1)
   If(1,4197,0,2,0)
    ChangeVariable(4197,4197,0,0,3)
    ShowMessageFace("k_mermaid_fc1",1,0,2,3)
    ShowMessage("\\n<ロリッタ (Affection:\\V[3197])>はい、プレゼント！")
    250(bytes(0x04,0x08,0x6f,0x3a,0x0c,0x52,0x50,0x47,0x3a,0x3a,0x53,0x45,0x08,0x3a,0x0a,0x40,0x6e,0x61,0x6d,0x65,0x49,0x22,0x0a,0x49,0x74,0x65,0x6d,0x31,0x06,0x3a,0x06,0x45,0x54,0x3a,0x0b,0x40,0x70,0x69,0x74,0x63,0x68,0x69,0x69,0x3a,0x0c,0x40,0x76,0x6f,0x6c,0x75,0x6d,0x65,0x69,0x55))
    ChangeInventoryArmor(1513,0,0,1,false)
    0()
   EndIf()
   0()
  EndIf()
  If(1,3197,0,4000,1)
   If(1,4197,0,3,0)
    ChangeVariable(4197,4197,0,0,4)
    ShowMessageFace("k_mermaid_fc1",1,0,2,4)
    ShowMessage("\\n<ロリッタ (Affection:\\V[3197])>はい、プレゼント！")
    250(bytes(0x04,0x08,0x6f,0x3a,0x0c,0x52,0x50,0x47,0x3a,0x3a,0x53,0x45,0x08,0x3a,0x0a,0x40,0x6e,0x61,0x6d,0x65,0x49,0x22,0x0a,0x49,0x74,0x65,0x6d,0x31,0x06,0x3a,0x06,0x45,0x54,0x3a,0x0b,0x40,0x70,0x69,0x74,0x63,0x68,0x69,0x69,0x3a,0x0c,0x40,0x76,0x6f,0x6c,0x75,0x6d,0x65,0x69,0x55))
    ChangeInventoryArmor(1228,0,0,1,false)
    0()
   EndIf()
   0()
  EndIf()
  355("actor_label_jump")
  ShowMessageFace("k_mermaid_fc1",0,0,2,5)
  ShowMessage("\\n<ロリッタ (Affection:\\V[3197])>あたしら海賊♪　あたしら海賊♪")
  ShowMessage("早く、連れてってよー♪")
  JumpToLabel("メニュー")
  DefineLabel("201")
  ShowMessageFace("k_mermaid_fc1",0,0,2,6)
  ShowMessage("\\n<ロリッタ (Affection:\\V[3197])>アシェルの姉御！")
  ShowMessage("航海長が呼んでたよ！")
  ShowMessageFace("ashel_fc1",0,0,2,7)
  ShowMessage("\\n<Ashel (Affection:\\V[3201])>ん……分かった、後で行くよ。")
  ShowMessageFace("k_mermaid_fc1",0,0,2,8)
  ShowMessage("\\n<ロリッタ (Affection:\\V[3197])>あと、操舵手と砲術長と作戦長と料理長と団長が呼んでたよ！")
  ShowMessageFace("ashel_fc1",2,0,2,9)
  ShowMessage("\\n<Ashel (Affection:\\V[3201])>まったく、忙しいね……")
  ShowMessage("体がいくつあっても、足りやしないよ。")
  JumpToLabel("メニュー")
  DefineLabel("202")
  ShowMessageFace("k_mermaid_fc1",0,0,2,10)
  ShowMessage("\\n<ロリッタ (Affection:\\V[3197])>おかしら！　よーそろー！")
  ShowMessageFace("bonny_fc1",0,0,2,11)
  ShowMessage("\\n<Bonnie (Affection:\\V[3202])>うむ、おつとめご苦労！")
  ShowMessage("ところで、おやつの時間はまだか？")
  ShowMessageFace("k_mermaid_fc1",0,0,2,12)
  ShowMessage("\\n<ロリッタ (Affection:\\V[3197])>アシェルの姉御から伝言ね。")
  ShowMessage("「またつまみ食いしたから、おやつは抜き」だってさ。")
  ShowMessageFace("bonny_fc1",2,0,2,13)
  ShowMessage("\\n<Bonnie (Affection:\\V[3202])>うう～！")
  JumpToLabel("メニュー")
  DefineLabel("196")
  ShowMessageFace("k_mermaid_fc1",2,0,2,14)
  ShowMessage("\\n<ロリッタ (Affection:\\V[3197])>ケガしちゃった、薬草売って～！")
  ShowMessageFace("s_mermaid_fc1",0,0,2,15)
  ShowMessage("\\n<ミンク (Affection:\\V[3196])>あいよ、お代はおさかな海賊団にツケとくで。")
  ShowMessageFace("k_mermaid_fc1",0,0,2,16)
  ShowMessage("\\n<ロリッタ (Affection:\\V[3197])>それじゃ、色々買い放題じゃん！")
  ShowMessage("そこのリンゴとおにぎりもちょうだい！")
  ShowMessageFace("s_mermaid_fc1",0,0,2,17)
  ShowMessage("\\n<ミンク (Affection:\\V[3196])>いや、ちゃんと海賊団にツケとくから……")
  ShowMessage("後でアシェルの姉御に怒られても知らんで。")
  JumpToLabel("メニュー")
  DefineLabel("メニュー")
  StartLoop()
   355("unlimited_choices(11, [\"Give presents\",")
   655("\"Add to party\",")
   655("\"View present list\",\"Request\",")
   655("\"Never mind\"])")
   If(1,11,0,0,0)
    355("present_start(197)")
    0()
   EndIf()
   If(1,11,0,1,0)
    PictureClear(5)
    355("move_actor_ex(197)")
    EndEventProcessing()
    0()
   EndIf()
   If(1,11,0,2,0)
    ShowMessageFace("",0,0,2,18)
    ShowMessage("Affection       100:\\ia[1016]")
    ShowMessage("Affection       500:\\ia[1017]")
    ShowMessage("Affection     2000:\\ia[1513]")
    ShowMessage("Affection     4000:\\ia[1228]")
    0()
   EndIf()
   If(1,11,0,3,0)
    PictureClear(5)
    ShowMessageFace("",0,0,2,19)
    ShowMessage("Ask her for what? (Affection:\\V[3197])")
    ShowChoices(strings("Paizuri(Affection:10)","Reverse Rape(Affection:100)","Never mind"),3)
    IfPlayerPicksChoice(0,null)
     If(1,3197,0,10,1)
      355("call_novel_scene(4796)")
      EndEventProcessing()
      0()
     Else()
      ShowMessageFace("k_mermaid_fc1",0,0,2,20)
      ShowMessage("\\n<ロリッタ (Affection:\\V[3197])>あたし達、そんなに仲良くないよね？")
      0()
     EndIf()
     0()
    IfPlayerPicksChoice(1,null)
     If(1,3197,0,100,1)
      355("call_novel_scene(4797)")
      EndEventProcessing()
      0()
     Else()
      ShowMessageFace("k_mermaid_fc1",0,0,2,21)
      ShowMessage("\\n<ロリッタ (Affection:\\V[3197])>あたし達、そんなに仲良くないよね？")
      0()
     EndIf()
     0()
    IfPlayerPicksChoice(2,null)
     0()
    404()
    0()
   EndIf()
   If(1,11,0,4,1)
    PictureClear(5)
    EndEventProcessing()
    0()
   EndIf()
   0()
  EndLoop()
  0()
 PAGE   2
  // condition: party contains actor #197
  0()



EVENT   55
 PAGE   1
  // condition: switch 1272 is ON
  PictureDisplay(5,"80_seiren_st01",0,0,0,0,100,100,0,0)
  PictureMove(5,null,0,0,0,0,100,100,255,0,30,true)
  If(1,3272,0,100,1)
   If(1,4272,0,0,0)
    ChangeVariable(4272,4272,0,0,1)
    ShowMessageFace("seiren_fc1",1,0,2,1)
    ShowMessage("\\n<Leene (Affection:\\V[3272])>これ、通りがかりの商船からもらったのよ……")
    250(bytes(0x04,0x08,0x6f,0x3a,0x0c,0x52,0x50,0x47,0x3a,0x3a,0x53,0x45,0x08,0x3a,0x0a,0x40,0x6e,0x61,0x6d,0x65,0x49,0x22,0x0a,0x49,0x74,0x65,0x6d,0x31,0x06,0x3a,0x06,0x45,0x54,0x3a,0x0b,0x40,0x70,0x69,0x74,0x63,0x68,0x69,0x69,0x3a,0x0c,0x40,0x76,0x6f,0x6c,0x75,0x6d,0x65,0x69,0x55))
    ChangeInventoryArmor(1026,0,0,1,false)
    0()
   EndIf()
   0()
  EndIf()
  If(1,3272,0,500,1)
   If(1,4272,0,1,0)
    ChangeVariable(4272,4272,0,0,2)
    ShowMessageFace("seiren_fc1",1,0,2,2)
    ShowMessage("\\n<Leene (Affection:\\V[3272])>これ、通りがかりの商船からもらったのよ……")
    250(bytes(0x04,0x08,0x6f,0x3a,0x0c,0x52,0x50,0x47,0x3a,0x3a,0x53,0x45,0x08,0x3a,0x0a,0x40,0x6e,0x61,0x6d,0x65,0x49,0x22,0x0a,0x49,0x74,0x65,0x6d,0x31,0x06,0x3a,0x06,0x45,0x54,0x3a,0x0b,0x40,0x70,0x69,0x74,0x63,0x68,0x69,0x69,0x3a,0x0c,0x40,0x76,0x6f,0x6c,0x75,0x6d,0x65,0x69,0x55))
    ChangeInventoryArmor(1586,0,0,1,false)
    0()
   EndIf()
   0()
  EndIf()
  If(1,3272,0,2000,1)
   If(1,4272,0,2,0)
    ChangeVariable(4272,4272,0,0,3)
    ShowMessageFace("seiren_fc1",1,0,2,3)
    ShowMessage("\\n<Leene (Affection:\\V[3272])>これ、通りがかりの商船からもらったのよ……")
    250(bytes(0x04,0x08,0x6f,0x3a,0x0c,0x52,0x50,0x47,0x3a,0x3a,0x53,0x45,0x08,0x3a,0x0a,0x40,0x6e,0x61,0x6d,0x65,0x49,0x22,0x0a,0x49,0x74,0x65,0x6d,0x31,0x06,0x3a,0x06,0x45,0x54,0x3a,0x0b,0x40,0x70,0x69,0x74,0x63,0x68,0x69,0x69,0x3a,0x0c,0x40,0x76,0x6f,0x6c,0x75,0x6d,0x65,0x69,0x55))
    ChangeInventoryArmor(1210,0,0,1,false)
    0()
   EndIf()
   0()
  EndIf()
  If(1,3272,0,4000,1)
   If(1,4272,0,3,0)
    ChangeVariable(4272,4272,0,0,4)
    ShowMessageFace("seiren_fc1",1,0,2,4)
    ShowMessage("\\n<Leene (Affection:\\V[3272])>これ、通りがかりの商船からもらったのよ……")
    250(bytes(0x04,0x08,0x6f,0x3a,0x0c,0x52,0x50,0x47,0x3a,0x3a,0x53,0x45,0x08,0x3a,0x0a,0x40,0x6e,0x61,0x6d,0x65,0x49,0x22,0x0a,0x49,0x74,0x65,0x6d,0x31,0x06,0x3a,0x06,0x45,0x54,0x3a,0x0b,0x40,0x70,0x69,0x74,0x63,0x68,0x69,0x69,0x3a,0x0c,0x40,0x76,0x6f,0x6c,0x75,0x6d,0x65,0x69,0x55))
    ChangeInventoryArmor(1587,0,0,1,false)
    0()
   EndIf()
   0()
  EndIf()
  355("actor_label_jump")
  ShowMessageFace("seiren_fc1",0,0,2,5)
  ShowMessage("\\n<Leene (Affection:\\V[3272])>ここでも、いっぱい歌いたいのだけど……")
  ShowMessage("みんな誘惑状態になるから、歌えないのよね。")
  JumpToLabel("メニュー")
  DefineLabel("155")
  ShowMessageFace("saki_fc1",0,0,2,6)
  ShowMessage("\\n<サキ (Affection:\\V[3155])>あなたは、歌が好きなハーピーなんだね！")
  ShowMessage("すごーい！")
  ShowMessageFace("seiren_fc1",0,0,2,7)
  ShowMessage("\\n<Leene (Affection:\\V[3272])>そう言うあなたは、歌と踊りが得意なサキュバスよね……")
  ShowMessage("今度、一緒に歌ってみない……？")
  ShowMessageFace("saki_fc1",3,0,2,8)
  ShowMessage("\\n<サキ (Affection:\\V[3155])>いいね、一緒にステージで歌おうよ♪")
  ShowMessageFace("seiren_fc1",1,0,2,9)
  ShowMessage("\\n<Leene (Affection:\\V[3272])>私の歌で、みんな魅了してやるわ……ふふふっ。")
  JumpToLabel("メニュー")
  DefineLabel("221")
  ShowMessageFace("seiren_fc1",0,0,2,10)
  ShowMessage("\\n<Leene (Affection:\\V[3272])>雪女にセイレーン……")
  ShowMessage("お互い、忌み嫌われる種族のようね。")
  ShowMessageFace("yukionna_fc1",0,0,2,11)
  ShowMessage("\\n<Oyuki (Affection:\\V[3221])>あなたは、魅惑の歌を歌うのよね……")
  ShowMessage("私は、周囲の全てを凍てつかせるわ。")
  ShowMessageFace("seiren_fc1",0,0,2,12)
  ShowMessage("\\n<Leene (Affection:\\V[3272])>まあ、お互いがんばりましょう。")
  ShowMessage("この世の全ての人間を魅了すれば、忌み嫌われる事もなくなるわ。")
  ShowMessageFace("yukionna_fc1",1,0,2,13)
  ShowMessage("\\n<Oyuki (Affection:\\V[3221])>そうね、全ての人間を凍てつかせてしまえば……")
  ShowMessage("忌み嫌われる事もなくなるはずよ。")
  JumpToLabel("メニュー")
  DefineLabel("326")
  ShowMessageFace("loreley_fc1",0,0,2,14)
  ShowMessage("\\n<ハイネ (Affection:\\V[3326])>ここでセイレーンを見るなんて意外ね……")
  ShowMessage("私も歌は得意よ。")
  ShowMessageFace("seiren_fc1",0,0,2,15)
  ShowMessage("\\n<Leene (Affection:\\V[3272])>海には、誘惑の歌を歌う者が多いわね。")
  ShowMessage("なぜなのかしら……")
  ShowMessageFace("loreley_fc1",0,0,2,16)
  ShowMessage("\\n<ハイネ (Affection:\\V[3326])>声が良く響くからじゃない？")
  ShowMessage("広い海だと、獲物が向こうから誘い寄せられるのも楽だし……")
  ShowMessageFace("seiren_fc1",0,0,2,17)
  ShowMessage("\\n<Leene (Affection:\\V[3272])>なるほど……海は広いものね。")
  JumpToLabel("メニュー")
  DefineLabel("メニュー")
  StartLoop()
   355("unlimited_choices(11, [\"Give presents\",")
   655("\"Add to party\",")
   655("\"View present list\",\"Request\",")
   655("\"Never mind\"])")
   If(1,11,0,0,0)
    355("present_start(272)")
    0()
   EndIf()
   If(1,11,0,1,0)
    PictureClear(5)
    355("move_actor_ex(272)")
    EndEventProcessing()
    0()
   EndIf()
   If(1,11,0,2,0)
    ShowMessageFace("",0,0,2,18)
    ShowMessage("Affection       100:\\ia[1026]")
    ShowMessage("Affection       500:\\ia[1586]")
    ShowMessage("Affection     2000:\\ia[1210]")
    ShowMessage("Affection     4000:\\ia[1587]")
    0()
   EndIf()
   If(1,11,0,3,0)
    PictureClear(5)
    ShowMessageFace("",0,0,2,19)
    ShowMessage("Ask her for what? (Affection:\\V[3272])")
    ShowChoices(strings("Reverse Rape(Affection:10)","Never mind"),2)
    IfPlayerPicksChoice(0,null)
     If(1,3272,0,10,1)
      355("call_novel_scene(5171)")
      EndEventProcessing()
      0()
     Else()
      ShowMessageFace("seiren_fc1",0,0,2,20)
      ShowMessage("\\n<Leene (Affection:\\V[3272])>その気にはなれないわ……")
      0()
     EndIf()
     0()
    IfPlayerPicksChoice(1,null)
     0()
    404()
    0()
   EndIf()
   If(1,11,0,4,1)
    PictureClear(5)
    EndEventProcessing()
    0()
   EndIf()
   0()
  EndLoop()
  0()
 PAGE   2
  // condition: party contains actor #272
  0()



EVENT   56
 PAGE   1
  // condition: switch 1273 is ON
  PictureDisplay(5,"80_sango_st01",0,0,0,0,100,100,0,0)
  PictureMove(5,null,0,0,0,0,100,100,255,0,30,true)
  If(1,3273,0,100,1)
   If(1,4273,0,0,0)
    ChangeVariable(4273,4273,0,0,1)
    ShowMessageFace("sango_fc1",0,0,2,1)
    ShowMessage("\\n<サンゴ (Affection:\\V[3273])>……………………")
    250(bytes(0x04,0x08,0x6f,0x3a,0x0c,0x52,0x50,0x47,0x3a,0x3a,0x53,0x45,0x08,0x3a,0x0a,0x40,0x6e,0x61,0x6d,0x65,0x49,0x22,0x0a,0x49,0x74,0x65,0x6d,0x31,0x06,0x3a,0x06,0x45,0x54,0x3a,0x0b,0x40,0x70,0x69,0x74,0x63,0x68,0x69,0x69,0x3a,0x0c,0x40,0x76,0x6f,0x6c,0x75,0x6d,0x65,0x69,0x55))
    ChangeInventoryArmor(1011,0,0,1,false)
    0()
   EndIf()
   0()
  EndIf()
  If(1,3273,0,500,1)
   If(1,4273,0,1,0)
    ChangeVariable(4273,4273,0,0,2)
    ShowMessageFace("sango_fc1",0,0,2,2)
    ShowMessage("\\n<サンゴ (Affection:\\V[3273])>……………………")
    250(bytes(0x04,0x08,0x6f,0x3a,0x0c,0x52,0x50,0x47,0x3a,0x3a,0x53,0x45,0x08,0x3a,0x0a,0x40,0x6e,0x61,0x6d,0x65,0x49,0x22,0x0a,0x49,0x74,0x65,0x6d,0x31,0x06,0x3a,0x06,0x45,0x54,0x3a,0x0b,0x40,0x70,0x69,0x74,0x63,0x68,0x69,0x69,0x3a,0x0c,0x40,0x76,0x6f,0x6c,0x75,0x6d,0x65,0x69,0x55))
    ChangeInventoryArmor(1574,0,0,1,false)
    0()
   EndIf()
   0()
  EndIf()
  If(1,3273,0,2000,1)
   If(1,4273,0,2,0)
    ChangeVariable(4273,4273,0,0,3)
    ShowMessageFace("sango_fc1",0,0,2,3)
    ShowMessage("\\n<サンゴ (Affection:\\V[3273])>……………………")
    250(bytes(0x04,0x08,0x6f,0x3a,0x0c,0x52,0x50,0x47,0x3a,0x3a,0x53,0x45,0x08,0x3a,0x0a,0x40,0x6e,0x61,0x6d,0x65,0x49,0x22,0x0a,0x49,0x74,0x65,0x6d,0x31,0x06,0x3a,0x06,0x45,0x54,0x3a,0x0b,0x40,0x70,0x69,0x74,0x63,0x68,0x69,0x69,0x3a,0x0c,0x40,0x76,0x6f,0x6c,0x75,0x6d,0x65,0x69,0x55))
    ChangeInventoryArmor(1461,0,0,1,false)
    0()
   EndIf()
   0()
  EndIf()
  If(1,3273,0,4000,1)
   If(1,4273,0,3,0)
    ChangeVariable(4273,4273,0,0,4)
    ShowMessageFace("sango_fc1",0,0,2,4)
    ShowMessage("\\n<サンゴ (Affection:\\V[3273])>……………………")
    250(bytes(0x04,0x08,0x6f,0x3a,0x0c,0x52,0x50,0x47,0x3a,0x3a,0x53,0x45,0x08,0x3a,0x0a,0x40,0x6e,0x61,0x6d,0x65,0x49,0x22,0x0a,0x49,0x74,0x65,0x6d,0x31,0x06,0x3a,0x06,0x45,0x54,0x3a,0x0b,0x40,0x70,0x69,0x74,0x63,0x68,0x69,0x69,0x3a,0x0c,0x40,0x76,0x6f,0x6c,0x75,0x6d,0x65,0x69,0x55))
    ChangeInventoryArmor(1538,0,0,1,false)
    0()
   EndIf()
   0()
  EndIf()
  355("actor_label_jump")
  ShowMessageFace("sango_fc1",0,0,2,5)
  ShowMessage("\\n<サンゴ (Affection:\\V[3273])>……………………")
  JumpToLabel("メニュー")
  DefineLabel("207")
  ShowMessageFace("centa_fc1",0,0,2,6)
  ShowMessage("\\n<ポニー (Affection:\\V[3207])>サンゴか……")
  ShowMessage("地を駆け回れず、悲しいと思った事はないか？")
  ShowMessageFace("sango_fc1",0,0,2,7)
  ShowMessage("\\n<サンゴ (Affection:\\V[3273])>……………………")
  ShowMessageFace("centa_fc1",0,0,2,8)
  ShowMessage("\\n<ポニー (Affection:\\V[3207])>しかし、地を駆ける事に価値など感じていないのかもしれないな。")
  ShowMessage("穏やかな海で静かに過ごす事こそ至上、そうなのか……？")
  ShowMessageFace("sango_fc1",0,0,2,9)
  ShowMessage("\\n<サンゴ (Affection:\\V[3273])>……………………")
  ShowMessageFace("centa_fc1",0,0,2,10)
  ShowMessage("\\n<ポニー (Affection:\\V[3207])>うむ……言いたい事は、伝わった気がしたぞ。")
  JumpToLabel("メニュー")
  DefineLabel("225")
  ShowMessageFace("hutakuti_fc1",0,0,2,11)
  ShowMessage("\\n<さくら (Affection:\\V[3225])>サンゴって、おいしいんですかね……")
  ShowMessageFace("sango_fc1",0,0,2,12)
  ShowMessage("\\n<サンゴ (Affection:\\V[3273])>…………ﾋﾞｸｯ!!")
  ShowMessageFace("hutakuti_fc1",1,0,2,13)
  ShowMessage("\\n<さくら (Affection:\\V[3225])>冗談です、かじったりしませんよ……")
  ShowMessageFace("sango_fc1",0,0,2,14)
  ShowMessage("\\n<サンゴ (Affection:\\V[3273])>……………………")
  ShowMessageFace("hutakuti_fc1",0,0,2,15)
  ShowMessage("\\n<さくら (Affection:\\V[3225])>じーっ……")
  ShowMessageFace("sango_fc1",0,0,2,16)
  ShowMessage("\\n<サンゴ (Affection:\\V[3273])>…………ﾋﾞｸｯ!!")
  JumpToLabel("メニュー")
  DefineLabel("274")
  ShowMessageFace("hitode_fc1",0,0,2,17)
  ShowMessage("\\n<アスタ (Affection:\\V[3274])>このサンゴは、意志があるんだかないんだか……")
  ShowMessageFace("sango_fc1",0,0,2,18)
  ShowMessage("\\n<サンゴ (Affection:\\V[3273])>……………………")
  ShowMessageFace("hitode_fc1",0,0,2,19)
  ShowMessage("\\n<アスタ (Affection:\\V[3274])>管足でくすぐっちゃえ、さわさわさわ……")
  ShowMessageFace("sango_fc1",0,0,2,20)
  ShowMessage("\\n<サンゴ (Affection:\\V[3273])>……、…………、……")
  JumpToLabel("メニュー")
  DefineLabel("メニュー")
  StartLoop()
   355("unlimited_choices(11, [\"Give presents\",")
   655("\"Add to party\",")
   655("\"View present list\",\"Request\",")
   655("\"Never mind\"])")
   If(1,11,0,0,0)
    355("present_start(273)")
    0()
   EndIf()
   If(1,11,0,1,0)
    PictureClear(5)
    355("move_actor_ex(273)")
    EndEventProcessing()
    0()
   EndIf()
   If(1,11,0,2,0)
    ShowMessageFace("",0,0,2,21)
    ShowMessage("Affection       100:\\ia[1011]")
    ShowMessage("Affection       500:\\ia[1574]")
    ShowMessage("Affection     2000:\\ia[1461]")
    ShowMessage("Affection     4000:\\ia[1538]")
    0()
   EndIf()
   If(1,11,0,3,0)
    PictureClear(5)
    ShowMessageFace("",0,0,2,22)
    ShowMessage("Ask her for what? (Affection:\\V[3273])")
    ShowChoices(strings("Absorption(Affection:10)","Absorption...?(Affection:100)","Never mind"),3)
    IfPlayerPicksChoice(0,null)
     If(1,3273,0,10,1)
      355("call_novel_scene(5176)")
      EndEventProcessing()
      0()
     Else()
      ShowMessageFace("sango_fc1",0,0,2,23)
      ShowMessage("\\n<サンゴ (Affection:\\V[3273])>……………………")
      0()
     EndIf()
     0()
    IfPlayerPicksChoice(1,null)
     If(1,3273,0,100,1)
      355("call_novel_scene(5177)")
      EndEventProcessing()
      0()
     Else()
      ShowMessageFace("sango_fc1",0,0,2,24)
      ShowMessage("\\n<サンゴ (Affection:\\V[3273])>……………………")
      0()
     EndIf()
     0()
    IfPlayerPicksChoice(2,null)
     0()
    404()
    0()
   EndIf()
   If(1,11,0,4,1)
    PictureClear(5)
    EndEventProcessing()
    0()
   EndIf()
   0()
  EndLoop()
  0()
 PAGE   2
  // condition: party contains actor #273
  0()



EVENT   57
 PAGE   1
  // condition: switch 1274 is ON
  PictureDisplay(5,"80_hitode_st01",0,0,0,0,100,100,0,0)
  PictureMove(5,null,0,0,0,0,100,100,255,0,30,true)
  If(1,3274,0,100,1)
   If(1,4274,0,0,0)
    ChangeVariable(4274,4274,0,0,1)
    ShowMessageFace("hitode_fc1",0,0,2,1)
    ShowMessage("\\n<アスタ (Affection:\\V[3274])>これ、大事にしてよね……")
    250(bytes(0x04,0x08,0x6f,0x3a,0x0c,0x52,0x50,0x47,0x3a,0x3a,0x53,0x45,0x08,0x3a,0x0a,0x40,0x6e,0x61,0x6d,0x65,0x49,0x22,0x0a,0x49,0x74,0x65,0x6d,0x31,0x06,0x3a,0x06,0x45,0x54,0x3a,0x0b,0x40,0x70,0x69,0x74,0x63,0x68,0x69,0x69,0x3a,0x0c,0x40,0x76,0x6f,0x6c,0x75,0x6d,0x65,0x69,0x55))
    ChangeInventoryArmor(1730,0,0,1,false)
    0()
   EndIf()
   0()
  EndIf()
  If(1,3274,0,500,1)
   If(1,4274,0,1,0)
    ChangeVariable(4274,4274,0,0,2)
    ShowMessageFace("hitode_fc1",0,0,2,2)
    ShowMessage("\\n<アスタ (Affection:\\V[3274])>これ、大事にしてよね……")
    250(bytes(0x04,0x08,0x6f,0x3a,0x0c,0x52,0x50,0x47,0x3a,0x3a,0x53,0x45,0x08,0x3a,0x0a,0x40,0x6e,0x61,0x6d,0x65,0x49,0x22,0x0a,0x49,0x74,0x65,0x6d,0x31,0x06,0x3a,0x06,0x45,0x54,0x3a,0x0b,0x40,0x70,0x69,0x74,0x63,0x68,0x69,0x69,0x3a,0x0c,0x40,0x76,0x6f,0x6c,0x75,0x6d,0x65,0x69,0x55))
    ChangeInventoryArmor(1090,0,0,1,false)
    0()
   EndIf()
   0()
  EndIf()
  If(1,3274,0,2000,1)
   If(1,4274,0,2,0)
    ChangeVariable(4274,4274,0,0,3)
    ShowMessageFace("hitode_fc1",0,0,2,3)
    ShowMessage("\\n<アスタ (Affection:\\V[3274])>これ、大事にしてよね……")
    250(bytes(0x04,0x08,0x6f,0x3a,0x0c,0x52,0x50,0x47,0x3a,0x3a,0x53,0x45,0x08,0x3a,0x0a,0x40,0x6e,0x61,0x6d,0x65,0x49,0x22,0x0a,0x49,0x74,0x65,0x6d,0x31,0x06,0x3a,0x06,0x45,0x54,0x3a,0x0b,0x40,0x70,0x69,0x74,0x63,0x68,0x69,0x69,0x3a,0x0c,0x40,0x76,0x6f,0x6c,0x75,0x6d,0x65,0x69,0x55))
    ChangeInventoryArmor(1482,0,0,1,false)
    0()
   EndIf()
   0()
  EndIf()
  If(1,3274,0,4000,1)
   If(1,4274,0,3,0)
    ChangeVariable(4274,4274,0,0,4)
    ShowMessageFace("hitode_fc1",0,0,2,4)
    ShowMessage("\\n<アスタ (Affection:\\V[3274])>これ、大事にしてよね……")
    250(bytes(0x04,0x08,0x6f,0x3a,0x0c,0x52,0x50,0x47,0x3a,0x3a,0x53,0x45,0x08,0x3a,0x0a,0x40,0x6e,0x61,0x6d,0x65,0x49,0x22,0x0a,0x49,0x74,0x65,0x6d,0x31,0x06,0x3a,0x06,0x45,0x54,0x3a,0x0b,0x40,0x70,0x69,0x74,0x63,0x68,0x69,0x69,0x3a,0x0c,0x40,0x76,0x6f,0x6c,0x75,0x6d,0x65,0x69,0x55))
    ChangeInventoryArmor(1577,0,0,1,false)
    0()
   EndIf()
   0()
  EndIf()
  355("actor_label_jump")
  ShowMessageFace("hitode_fc1",0,0,2,5)
  ShowMessage("\\n<アスタ (Affection:\\V[3274])>ヒトデにも動きやすい、バリアフリーの城にしたいわ。")
  ShowMessage("壁とか、いっぱい壊さないとね……")
  JumpToLabel("メニュー")
  DefineLabel("204")
  ShowMessageFace("hitode_fc1",0,0,2,6)
  ShowMessage("\\n<アスタ (Affection:\\V[3274])>このサンゴ、おいしいわね……むしゃむしゃ。")
  ShowMessageFace("umiusi_k_fc1",0,0,2,7)
  ShowMessage("\\n<Stacy (Affection:\\V[3204])>ちょっと、そこのヒトデさん！")
  ShowMessage("そのサンゴは保護種なので、捕食は禁じられていますよ！")
  ShowMessageFace("hitode_fc1",2,0,2,8)
  ShowMessage("\\n<アスタ (Affection:\\V[3274])>もう、面倒くさいわね……")
  ShowMessage("なんでこんな場所にまで、海兵がいるのよ。")
  ShowMessageFace("umiusi_k_fc1",0,0,2,9)
  ShowMessage("\\n<Stacy (Affection:\\V[3204])>海軍の目は、いかなるところにも光っているのです！")
  JumpToLabel("メニュー")
  DefineLabel("273")
  ShowMessageFace("hitode_fc1",0,0,2,10)
  ShowMessage("\\n<アスタ (Affection:\\V[3274])>このサンゴは、意志があるんだかないんだか……")
  ShowMessageFace("sango_fc1",0,0,2,11)
  ShowMessage("\\n<サンゴ (Affection:\\V[3273])>……………………")
  ShowMessageFace("hitode_fc1",0,0,2,12)
  ShowMessage("\\n<アスタ (Affection:\\V[3274])>管足でくすぐっちゃえ、さわさわさわ……")
  ShowMessageFace("sango_fc1",0,0,2,13)
  ShowMessage("\\n<サンゴ (Affection:\\V[3273])>……、…………、……")
  JumpToLabel("メニュー")
  DefineLabel("307")
  ShowMessageFace("seaanemone_fc1",0,0,2,14)
  ShowMessage("\\n<アネモ (Affection:\\V[3307])>あら、アスタ……")
  ShowMessage("調子は良いみたいね。")
  ShowMessageFace("hitode_fc1",2,0,2,15)
  ShowMessage("\\n<アスタ (Affection:\\V[3274])>前から思ってたんだけど……")
  ShowMessage("あなた、何の魔物なの？")
  ShowMessageFace("seaanemone_fc1",0,0,2,16)
  ShowMessage("\\n<アネモ (Affection:\\V[3307])>なんか、イソギンチャク……とか？")
  ShowMessageFace("hitode_fc1",2,0,2,17)
  ShowMessage("\\n<アスタ (Affection:\\V[3274])>とか！？")
  JumpToLabel("メニュー")
  DefineLabel("メニュー")
  StartLoop()
   355("unlimited_choices(11, [\"Give presents\",")
   655("\"Add to party\",")
   655("\"View present list\",\"Request\",")
   655("\"Never mind\"])")
   If(1,11,0,0,0)
    355("present_start(274)")
    0()
   EndIf()
   If(1,11,0,1,0)
    PictureClear(5)
    355("move_actor_ex(274)")
    EndEventProcessing()
    0()
   EndIf()
   If(1,11,0,2,0)
    ShowMessageFace("",0,0,2,18)
    ShowMessage("Affection       100:\\ia[1730]")
    ShowMessage("Affection       500:\\ia[1090]")
    ShowMessage("Affection     2000:\\ia[1482]")
    ShowMessage("Affection     4000:\\ia[1577]")
    0()
   EndIf()
   If(1,11,0,3,0)
    PictureClear(5)
    ShowMessageFace("",0,0,2,19)
    ShowMessage("Ask her for what? (Affection:\\V[3274])")
    ShowChoices(strings("Swallow(Affection:10)","Swallow...?(Affection:100)","Never mind"),3)
    IfPlayerPicksChoice(0,null)
     If(1,3274,0,10,1)
      355("call_novel_scene(5181)")
      EndEventProcessing()
      0()
     Else()
      ShowMessageFace("hitode_fc1",0,0,2,20)
      ShowMessage("\\n<アスタ (Affection:\\V[3274])>期待に応えてはあげられないわ……")
      0()
     EndIf()
     0()
    IfPlayerPicksChoice(1,null)
     If(1,3274,0,100,1)
      355("call_novel_scene(5182)")
      EndEventProcessing()
      0()
     Else()
      ShowMessageFace("hitode_fc1",0,0,2,21)
      ShowMessage("\\n<アスタ (Affection:\\V[3274])>期待に応えてはあげられないわ……")
      0()
     EndIf()
     0()
    IfPlayerPicksChoice(2,null)
     0()
    404()
    0()
   EndIf()
   If(1,11,0,4,1)
    PictureClear(5)
    EndEventProcessing()
    0()
   EndIf()
   0()
  EndLoop()
  0()
 PAGE   2
  // condition: party contains actor #274
  0()



EVENT   58
 PAGE   1
  // condition: switch 1278 is ON
  PictureDisplay(5,"80_arkjelly_st01",0,0,0,0,100,100,0,0)
  PictureMove(5,null,0,0,0,0,100,100,255,0,30,true)
  If(1,3278,0,100,1)
   If(1,4278,0,0,0)
    ChangeVariable(4278,4278,0,0,1)
    ShowMessageFace("arkjelly_fc1",0,0,2,1)
    ShowMessage("\\n<サマンサ (Affection:\\V[3278])>あげる……")
    250(bytes(0x04,0x08,0x6f,0x3a,0x0c,0x52,0x50,0x47,0x3a,0x3a,0x53,0x45,0x08,0x3a,0x0a,0x40,0x6e,0x61,0x6d,0x65,0x49,0x22,0x0a,0x49,0x74,0x65,0x6d,0x31,0x06,0x3a,0x06,0x45,0x54,0x3a,0x0b,0x40,0x70,0x69,0x74,0x63,0x68,0x69,0x69,0x3a,0x0c,0x40,0x76,0x6f,0x6c,0x75,0x6d,0x65,0x69,0x55))
    ChangeInventoryArmor(1171,0,0,1,false)
    0()
   EndIf()
   0()
  EndIf()
  If(1,3278,0,500,1)
   If(1,4278,0,1,0)
    ChangeVariable(4278,4278,0,0,2)
    ShowMessageFace("arkjelly_fc1",0,0,2,2)
    ShowMessage("\\n<サマンサ (Affection:\\V[3278])>あげる……")
    250(bytes(0x04,0x08,0x6f,0x3a,0x0c,0x52,0x50,0x47,0x3a,0x3a,0x53,0x45,0x08,0x3a,0x0a,0x40,0x6e,0x61,0x6d,0x65,0x49,0x22,0x0a,0x49,0x74,0x65,0x6d,0x31,0x06,0x3a,0x06,0x45,0x54,0x3a,0x0b,0x40,0x70,0x69,0x74,0x63,0x68,0x69,0x69,0x3a,0x0c,0x40,0x76,0x6f,0x6c,0x75,0x6d,0x65,0x69,0x55))
    ChangeInventoryArmor(1558,0,0,1,false)
    0()
   EndIf()
   0()
  EndIf()
  If(1,3278,0,2000,1)
   If(1,4278,0,2,0)
    ChangeVariable(4278,4278,0,0,3)
    ShowMessageFace("arkjelly_fc1",0,0,2,3)
    ShowMessage("\\n<サマンサ (Affection:\\V[3278])>あげる……")
    250(bytes(0x04,0x08,0x6f,0x3a,0x0c,0x52,0x50,0x47,0x3a,0x3a,0x53,0x45,0x08,0x3a,0x0a,0x40,0x6e,0x61,0x6d,0x65,0x49,0x22,0x0a,0x49,0x74,0x65,0x6d,0x31,0x06,0x3a,0x06,0x45,0x54,0x3a,0x0b,0x40,0x70,0x69,0x74,0x63,0x68,0x69,0x69,0x3a,0x0c,0x40,0x76,0x6f,0x6c,0x75,0x6d,0x65,0x69,0x55))
    ChangeInventoryArmor(1446,0,0,1,false)
    0()
   EndIf()
   0()
  EndIf()
  If(1,3278,0,4000,1)
   If(1,4278,0,3,0)
    ChangeVariable(4278,4278,0,0,4)
    ShowMessageFace("arkjelly_fc1",0,0,2,4)
    ShowMessage("\\n<サマンサ (Affection:\\V[3278])>あげる……")
    250(bytes(0x04,0x08,0x6f,0x3a,0x0c,0x52,0x50,0x47,0x3a,0x3a,0x53,0x45,0x08,0x3a,0x0a,0x40,0x6e,0x61,0x6d,0x65,0x49,0x22,0x0a,0x49,0x74,0x65,0x6d,0x31,0x06,0x3a,0x06,0x45,0x54,0x3a,0x0b,0x40,0x70,0x69,0x74,0x63,0x68,0x69,0x69,0x3a,0x0c,0x40,0x76,0x6f,0x6c,0x75,0x6d,0x65,0x69,0x55))
    ChangeInventoryArmor(1144,0,0,1,false)
    0()
   EndIf()
   0()
  EndIf()
  355("actor_label_jump")
  ShowMessageFace("arkjelly_fc1",0,0,2,5)
  ShowMessage("\\n<サマンサ (Affection:\\V[3278])>くらげ、そらをとぶ……ふらふら。")
  JumpToLabel("メニュー")
  DefineLabel("115")
  ShowMessageFace("arkjelly_fc1",0,0,2,6)
  ShowMessage("\\n<サマンサ (Affection:\\V[3278])>……くらげだ！")
  ShowMessageFace("kurage_fc1",0,0,2,7)
  ShowMessage("\\n<くらげ (Affection:\\V[3115])>そっちは、アークくらげだ……")
  ShowMessageFace("arkjelly_fc1",0,0,2,8)
  ShowMessage("\\n<サマンサ (Affection:\\V[3278])>ゆらゆら……")
  ShowMessageFace("kurage_fc1",0,0,2,9)
  ShowMessage("\\n<くらげ (Affection:\\V[3115])>ふらふら……")
  ShowMessageFace("arkjelly_fc1",0,0,2,10)
  ShowMessage("\\n<サマンサ (Affection:\\V[3278])>くらげ……")
  ShowMessageFace("kurage_fc1",0,0,2,11)
  ShowMessage("\\n<くらげ (Affection:\\V[3115])>くらげ……")
  JumpToLabel("メニュー")
  DefineLabel("258")
  ShowMessageFace("arkjelly_fc1",0,0,2,12)
  ShowMessage("\\n<サマンサ (Affection:\\V[3278])>くらげ、ふらふら……")
  ShowMessageFace("fakejelly_fc1",0,0,2,13)
  ShowMessage("\\n<アルネ (Affection:\\V[3258])>あっ、仲間ですね！")
  ShowMessage("あたしもくらげです♪")
  ShowMessageFace("arkjelly_fc1",0,0,2,14)
  ShowMessage("\\n<サマンサ (Affection:\\V[3278])>くらげなのに、服を着てる……")
  ShowMessage("窮屈じゃない……？")
  ShowMessageFace("fakejelly_fc1",0,0,2,15)
  ShowMessage("\\n<アルネ (Affection:\\V[3258])>ちょっと窮屈だけど、オシャレは好きですよ♪")
  JumpToLabel("メニュー")
  DefineLabel("277")
  ShowMessageFace("beelzebub_fc3",0,0,2,16)
  ShowMessage("\\n<メディア (Affection:\\V[3277])>くらげだ……")
  ShowMessageFace("arkjelly_fc1",0,0,2,17)
  ShowMessage("\\n<サマンサ (Affection:\\V[3278])>…………？？？")
  ShowMessageFace("beelzebub_fc3",1,0,2,18)
  ShowMessage("\\n<メディア (Affection:\\V[3277])>夏の風情、っていうのかしら……")
  ShowMessageFace("arkjelly_fc1",0,0,2,19)
  ShowMessage("\\n<サマンサ (Affection:\\V[3278])>いわないよ……")
  ShowMessageFace("beelzebub_fc3",2,0,2,20)
  ShowMessage("\\n<メディア (Affection:\\V[3277])>くらげに突っ込まれた……")
  ShowMessageFace("arkjelly_fc1",1,0,2,21)
  ShowMessage("\\n<サマンサ (Affection:\\V[3278])>むふっ。")
  JumpToLabel("メニュー")
  DefineLabel("メニュー")
  StartLoop()
   355("unlimited_choices(11, [\"Give presents\",")
   655("\"Add to party\",")
   655("\"View present list\",\"Request\",")
   655("\"Never mind\"])")
   If(1,11,0,0,0)
    355("present_start(278)")
    0()
   EndIf()
   If(1,11,0,1,0)
    PictureClear(5)
    355("move_actor_ex(278)")
    EndEventProcessing()
    0()
   EndIf()
   If(1,11,0,2,0)
    ShowMessageFace("",0,0,2,22)
    ShowMessage("Affection       100:\\ia[1171]")
    ShowMessage("Affection       500:\\ia[1558]")
    ShowMessage("Affection     2000:\\ia[1446]")
    ShowMessage("Affection     4000:\\ia[1144]")
    0()
   EndIf()
   If(1,11,0,3,0)
    PictureClear(5)
    ShowMessageFace("",0,0,2,23)
    ShowMessage("Ask her for what? (Affection:\\V[3278])")
    ShowChoices(strings("Semen Sucking Restraint(Affection:10)","Never mind"),2)
    IfPlayerPicksChoice(0,null)
     If(1,3278,0,10,1)
      355("call_novel_scene(5201)")
      EndEventProcessing()
      0()
     Else()
      ShowMessageFace("arkjelly_fc1",0,0,2,24)
      ShowMessage("\\n<サマンサ (Affection:\\V[3278])>ふらふら……")
      0()
     EndIf()
     0()
    IfPlayerPicksChoice(1,null)
     0()
    404()
    0()
   EndIf()
   If(1,11,0,4,1)
    PictureClear(5)
    EndEventProcessing()
    0()
   EndIf()
   0()
  EndLoop()
  0()
 PAGE   2
  // condition: party contains actor #278
  0()



EVENT   59
 PAGE   1
  // condition: switch 1310 is ON
  PictureDisplay(5,"80_ikkaku_st01",0,0,0,0,100,100,0,0)
  PictureMove(5,null,0,0,0,0,100,100,255,0,30,true)
  If(1,3310,0,500,1)
   If(1,4310,0,0,0)
    ChangeVariable(4310,4310,0,0,1)
    ShowMessageFace("ikkaku_fc1",0,0,2,1)
    ShowMessage("\\n<ホルン (Affection:\\V[3310])>これを使え……")
    250(bytes(0x04,0x08,0x6f,0x3a,0x0c,0x52,0x50,0x47,0x3a,0x3a,0x53,0x45,0x08,0x3a,0x0a,0x40,0x6e,0x61,0x6d,0x65,0x49,0x22,0x0a,0x49,0x74,0x65,0x6d,0x31,0x06,0x3a,0x06,0x45,0x54,0x3a,0x0b,0x40,0x70,0x69,0x74,0x63,0x68,0x69,0x69,0x3a,0x0c,0x40,0x76,0x6f,0x6c,0x75,0x6d,0x65,0x69,0x55))
    ChangeInventoryArmor(1715,0,0,1,false)
    0()
   EndIf()
   0()
  EndIf()
  If(1,3310,0,2000,1)
   If(1,4310,0,1,0)
    ChangeVariable(4310,4310,0,0,2)
    ShowMessageFace("ikkaku_fc1",0,0,2,2)
    ShowMessage("\\n<ホルン (Affection:\\V[3310])>これを使え……")
    250(bytes(0x04,0x08,0x6f,0x3a,0x0c,0x52,0x50,0x47,0x3a,0x3a,0x53,0x45,0x08,0x3a,0x0a,0x40,0x6e,0x61,0x6d,0x65,0x49,0x22,0x0a,0x49,0x74,0x65,0x6d,0x31,0x06,0x3a,0x06,0x45,0x54,0x3a,0x0b,0x40,0x70,0x69,0x74,0x63,0x68,0x69,0x69,0x3a,0x0c,0x40,0x76,0x6f,0x6c,0x75,0x6d,0x65,0x69,0x55))
    ChangeInventoryArmor(1207,0,0,1,false)
    0()
   EndIf()
   0()
  EndIf()
  If(1,3310,0,4000,1)
   If(1,4310,0,2,0)
    ChangeVariable(4310,4310,0,0,3)
    ShowMessageFace("ikkaku_fc1",0,0,2,3)
    ShowMessage("\\n<ホルン (Affection:\\V[3310])>これを使え……")
    250(bytes(0x04,0x08,0x6f,0x3a,0x0c,0x52,0x50,0x47,0x3a,0x3a,0x53,0x45,0x08,0x3a,0x0a,0x40,0x6e,0x61,0x6d,0x65,0x49,0x22,0x0a,0x49,0x74,0x65,0x6d,0x31,0x06,0x3a,0x06,0x45,0x54,0x3a,0x0b,0x40,0x70,0x69,0x74,0x63,0x68,0x69,0x69,0x3a,0x0c,0x40,0x76,0x6f,0x6c,0x75,0x6d,0x65,0x69,0x55))
    ChangeInventoryArmor(1514,0,0,1,false)
    0()
   EndIf()
   0()
  EndIf()
  If(1,3310,0,6000,1)
   If(1,4310,0,3,0)
    ChangeVariable(4310,4310,0,0,4)
    ShowMessageFace("ikkaku_fc1",0,0,2,4)
    ShowMessage("\\n<ホルン (Affection:\\V[3310])>これを使え……")
    250(bytes(0x04,0x08,0x6f,0x3a,0x0c,0x52,0x50,0x47,0x3a,0x3a,0x53,0x45,0x08,0x3a,0x0a,0x40,0x6e,0x61,0x6d,0x65,0x49,0x22,0x0a,0x49,0x74,0x65,0x6d,0x31,0x06,0x3a,0x06,0x45,0x54,0x3a,0x0b,0x40,0x70,0x69,0x74,0x63,0x68,0x69,0x69,0x3a,0x0c,0x40,0x76,0x6f,0x6c,0x75,0x6d,0x65,0x69,0x55))
    ChangeInventoryArmor(1005,0,0,1,false)
    0()
   EndIf()
   0()
  EndIf()
  355("actor_label_jump")
  ShowMessageFace("ikkaku_fc1",0,0,2,5)
  ShowMessage("\\n<ホルン (Affection:\\V[3310])>自分でも、竜なのか海蛇なのかイッカククジラなのか……")
  ShowMessage("考えるだけで、体が長くなってしまうな。")
  JumpToLabel("メニュー")
  DefineLabel("309")
  ShowMessageFace("manta_fc1",0,0,2,6)
  ShowMessage("\\n<オーシャン (Affection:\\V[3309])>イッカクよ……")
  ShowMessage("どちらが海の覇王か、戦いで決めないか？")
  ShowMessageFace("ikkaku_fc1",0,0,2,7)
  ShowMessage("\\n<ホルン (Affection:\\V[3310])>いいだろう、マンタよ……")
  ShowMessage("誰が海の支配種か、ここで決めようぞ！")
  ShowMessageFace("sonia_fc1",5,0,2,8)
  ShowMessage("\\n<Sonya>おーい、ケンカしちゃダメでしょー！")
  ShowMessage("私の声、聞こえてるー？")
  ShowMessageFace("manta_fc1",2,0,2,9)
  ShowMessage("\\n<オーシャン (Affection:\\V[3309])>怒られてしまうな……仕方ない、決着は次だ。")
  ShowMessageFace("ikkaku_fc1",2,0,2,10)
  ShowMessage("\\n<ホルン (Affection:\\V[3310])>まったく……ここではあの棍棒人間が支配者か。")
  JumpToLabel("メニュー")
  DefineLabel("329")
  ShowMessageFace("kraken_fc1",0,0,2,11)
  ShowMessage("\\n<クラーケン (Affection:\\V[3329])>イッカクですか……")
  ShowMessage("相変わらず、勇壮な角ですね。")
  ShowMessageFace("ikkaku_fc1",1,0,2,12)
  ShowMessage("\\n<ホルン (Affection:\\V[3310])>さすが、南海の女王はお目が高い……")
  ShowMessage("我が大角は、美しさも硬度も一級品だ。")
  ShowMessageFace("kraken_fc1",1,0,2,13)
  ShowMessage("\\n<クラーケン (Affection:\\V[3329])>実に素晴らしい……")
  ShowMessage("引っこ抜いて、海底神殿に飾りたいですね。")
  ShowMessageFace("ikkaku_fc1",2,0,2,14)
  ShowMessage("\\n<ホルン (Affection:\\V[3310])>勘弁してくれ……")
  JumpToLabel("メニュー")
  DefineLabel("36")
  ShowMessageFace("rucyfinac_fc1",0,0,2,15)
  ShowMessage("\\n<Lucifina-chan (Affection:\\V[3036])>わぁ！　おおきなツノ！")
  ShowMessageFace("ikkaku_fc1",1,0,2,16)
  ShowMessage("\\n<ホルン (Affection:\\V[3310])>ふふっ、大したものだろう？")
  ShowMessage("この大角こそ、我が誇りなのだ。")
  ShowMessageFace("rucyfinac_fc1",3,0,2,17)
  ShowMessage("\\n<Lucifina-chan (Affection:\\V[3036])>あたしも、おおきなツノが欲しいなぁ～！")
  ShowMessage("神敵をみんな、串刺しにしちゃうの♪")
  ShowMessageFace("ikkaku_fc1",2,0,2,18)
  ShowMessage("\\n<ホルン (Affection:\\V[3310])>恐ろしい事を言うな……")
  JumpToLabel("メニュー")
  DefineLabel("メニュー")
  StartLoop()
   355("unlimited_choices(11, [\"Give presents\",")
   655("\"Add to party\",")
   655("\"View present list\",\"Request\",")
   655("\"Never mind\"])")
   If(1,11,0,0,0)
    355("present_start(310)")
    0()
   EndIf()
   If(1,11,0,1,0)
    PictureClear(5)
    355("move_actor_ex(310)")
    EndEventProcessing()
    0()
   EndIf()
   If(1,11,0,2,0)
    ShowMessageFace("",0,0,2,19)
    ShowMessage("Affection       500:\\ia[1715]")
    ShowMessage("Affection     2000:\\ia[1207]")
    ShowMessage("Affection     4000:\\ia[1514]")
    ShowMessage("Affection     6000:\\ia[1005]")
    0()
   EndIf()
   If(1,11,0,3,0)
    PictureClear(5)
    ShowMessageFace("",0,0,2,20)
    ShowMessage("Ask her for what? (Affection:\\V[3310])")
    ShowChoices(strings("Reverse Rape(Affection:10)","Never mind"),2)
    IfPlayerPicksChoice(0,null)
     If(1,3310,0,10,1)
      355("call_novel_scene(5366)")
      EndEventProcessing()
      0()
     Else()
      ShowMessageFace("ikkaku_fc1",0,0,2,21)
      ShowMessage("\\n<ホルン (Affection:\\V[3310])>今は気が向かんぞ。")
      0()
     EndIf()
     0()
    IfPlayerPicksChoice(1,null)
     0()
    404()
    0()
   EndIf()
   If(1,11,0,4,1)
    PictureClear(5)
    EndEventProcessing()
    0()
   EndIf()
   0()
  EndLoop()
  0()
 PAGE   2
  // condition: party contains actor #310
  0()



EVENT   60
 PAGE   1
  // condition: switch 1309 is ON
  PictureDisplay(5,"80_manta_st01",0,0,0,0,100,100,0,0)
  PictureMove(5,null,0,0,0,0,100,100,255,0,30,true)
  If(1,3309,0,500,1)
   If(1,4309,0,0,0)
    ChangeVariable(4309,4309,0,0,1)
    ShowMessageFace("manta_fc1",1,0,2,1)
    ShowMessage("\\n<オーシャン (Affection:\\V[3309])>これを受け取るがいい！")
    250(bytes(0x04,0x08,0x6f,0x3a,0x0c,0x52,0x50,0x47,0x3a,0x3a,0x53,0x45,0x08,0x3a,0x0a,0x40,0x6e,0x61,0x6d,0x65,0x49,0x22,0x0a,0x49,0x74,0x65,0x6d,0x31,0x06,0x3a,0x06,0x45,0x54,0x3a,0x0b,0x40,0x70,0x69,0x74,0x63,0x68,0x69,0x69,0x3a,0x0c,0x40,0x76,0x6f,0x6c,0x75,0x6d,0x65,0x69,0x55))
    ChangeInventoryArmor(1002,0,0,1,false)
    0()
   EndIf()
   0()
  EndIf()
  If(1,3309,0,2000,1)
   If(1,4309,0,1,0)
    ChangeVariable(4309,4309,0,0,2)
    ShowMessageFace("manta_fc1",1,0,2,2)
    ShowMessage("\\n<オーシャン (Affection:\\V[3309])>これを受け取るがいい！")
    250(bytes(0x04,0x08,0x6f,0x3a,0x0c,0x52,0x50,0x47,0x3a,0x3a,0x53,0x45,0x08,0x3a,0x0a,0x40,0x6e,0x61,0x6d,0x65,0x49,0x22,0x0a,0x49,0x74,0x65,0x6d,0x31,0x06,0x3a,0x06,0x45,0x54,0x3a,0x0b,0x40,0x70,0x69,0x74,0x63,0x68,0x69,0x69,0x3a,0x0c,0x40,0x76,0x6f,0x6c,0x75,0x6d,0x65,0x69,0x55))
    ChangeInventoryArmor(1003,0,0,1,false)
    0()
   EndIf()
   0()
  EndIf()
  If(1,3309,0,4000,1)
   If(1,4309,0,2,0)
    ChangeVariable(4309,4309,0,0,3)
    ShowMessageFace("manta_fc1",1,0,2,3)
    ShowMessage("\\n<オーシャン (Affection:\\V[3309])>これを受け取るがいい！")
    250(bytes(0x04,0x08,0x6f,0x3a,0x0c,0x52,0x50,0x47,0x3a,0x3a,0x53,0x45,0x08,0x3a,0x0a,0x40,0x6e,0x61,0x6d,0x65,0x49,0x22,0x0a,0x49,0x74,0x65,0x6d,0x31,0x06,0x3a,0x06,0x45,0x54,0x3a,0x0b,0x40,0x70,0x69,0x74,0x63,0x68,0x69,0x69,0x3a,0x0c,0x40,0x76,0x6f,0x6c,0x75,0x6d,0x65,0x69,0x55))
    ChangeInventoryArmor(1268,0,0,1,false)
    0()
   EndIf()
   0()
  EndIf()
  If(1,3309,0,6000,1)
   If(1,4309,0,3,0)
    ChangeVariable(4309,4309,0,0,4)
    ShowMessageFace("manta_fc1",1,0,2,4)
    ShowMessage("\\n<オーシャン (Affection:\\V[3309])>これを受け取るがいい！")
    250(bytes(0x04,0x08,0x6f,0x3a,0x0c,0x52,0x50,0x47,0x3a,0x3a,0x53,0x45,0x08,0x3a,0x0a,0x40,0x6e,0x61,0x6d,0x65,0x49,0x22,0x0a,0x49,0x74,0x65,0x6d,0x31,0x06,0x3a,0x06,0x45,0x54,0x3a,0x0b,0x40,0x70,0x69,0x74,0x63,0x68,0x69,0x69,0x3a,0x0c,0x40,0x76,0x6f,0x6c,0x75,0x6d,0x65,0x69,0x55))
    ChangeInventoryArmor(1248,0,0,1,false)
    0()
   EndIf()
   0()
  EndIf()
  355("actor_label_jump")
  ShowMessageFace("manta_fc1",1,0,2,5)
  ShowMessage("\\n<オーシャン (Affection:\\V[3309])>さあ、我を大海に解き放て！")
  ShowMessage("存分に荒れ狂ってみせよう！")
  JumpToLabel("メニュー")
  DefineLabel("36")
  ShowMessageFace("rucyfinac_fc1",0,0,2,6)
  ShowMessage("\\n<Lucifina-chan (Affection:\\V[3036])>エイだ！　おおき～い！")
  ShowMessageFace("manta_fc1",1,0,2,7)
  ShowMessage("\\n<オーシャン (Affection:\\V[3309])>ふふふ、そうだろう！")
  ShowMessage("我こそが海の主なのだ！")
  ShowMessageFace("rucyfinac_fc1",0,0,2,8)
  ShowMessage("\\n<Lucifina-chan (Affection:\\V[3036])>背中に登っていい……？")
  ShowMessageFace("manta_fc1",2,0,2,9)
  ShowMessage("\\n<オーシャン (Affection:\\V[3309])>おいやめろ、無理をすると……")
  ShowMessageFace("rucyfinac_fc1",4,0,2,10)
  ShowMessage("\\n<Lucifina-chan (Affection:\\V[3036])>背中、ヌルヌルしてて……")
  ShowMessage("……ぎゃん！　すべっちゃった！")
  ShowMessageFace("manta_fc1",2,0,2,11)
  ShowMessage("\\n<オーシャン (Affection:\\V[3309])>だから言ったのに……")
  JumpToLabel("メニュー")
  DefineLabel("280")
  ShowMessageFace("poseidones_fc1",0,0,2,12)
  ShowMessage("\\n<ポセイドネス (Affection:\\V[3280])>マンタよ……いたずらに海を荒らしてはいないだろうな？")
  ShowMessageFace("manta_fc1",1,0,2,13)
  ShowMessage("\\n<オーシャン (Affection:\\V[3309])>私は温厚な魔物だぞ、北海の女王よ。")
  ShowMessage("穏やかな海を望みこそすれ、荒らしなどしない……")
  ShowMessageFace("poseidones_fc1",0,0,2,14)
  ShowMessage("\\n<ポセイドネス (Affection:\\V[3280])>またイッカクと争ってはいないだろうな……？")
  ShowMessageFace("manta_fc1",0,0,2,15)
  ShowMessage("\\n<オーシャン (Affection:\\V[3309])>私とイッカクは、大海の宿敵……")
  ShowMessage("北海の女王が相手でも、こればかりは譲れん！")
  ShowMessageFace("poseidones_fc1",2,0,2,16)
  ShowMessage("\\n<ポセイドネス (Affection:\\V[3280])>やれやれ、まったく……")
  ShowMessage("船や他の生物は巻き込むなよ。")
  JumpToLabel("メニュー")
  DefineLabel("310")
  ShowMessageFace("manta_fc1",0,0,2,17)
  ShowMessage("\\n<オーシャン (Affection:\\V[3309])>イッカクよ……")
  ShowMessage("どちらが海の覇王か、戦いで決めないか？")
  ShowMessageFace("ikkaku_fc1",0,0,2,18)
  ShowMessage("\\n<ホルン (Affection:\\V[3310])>いいだろう、マンタよ……")
  ShowMessage("誰が海の支配種か、ここで決めようぞ！")
  ShowMessageFace("sonia_fc1",5,0,2,19)
  ShowMessage("\\n<Sonya>おーい、ケンカしちゃダメでしょー！")
  ShowMessage("私の声、聞こえてるー？")
  ShowMessageFace("manta_fc1",2,0,2,20)
  ShowMessage("\\n<オーシャン (Affection:\\V[3309])>怒られてしまうな……仕方ない、決着は次だ。")
  ShowMessageFace("ikkaku_fc1",2,0,2,21)
  ShowMessage("\\n<ホルン (Affection:\\V[3310])>まったく……ここではあの棍棒人間が支配者か。")
  JumpToLabel("メニュー")
  DefineLabel("メニュー")
  StartLoop()
   355("unlimited_choices(11, [\"Give presents\",")
   655("\"Add to party\",")
   655("\"View present list\",\"Request\",")
   655("\"Never mind\"])")
   If(1,11,0,0,0)
    355("present_start(309)")
    0()
   EndIf()
   If(1,11,0,1,0)
    PictureClear(5)
    355("move_actor_ex(309)")
    EndEventProcessing()
    0()
   EndIf()
   If(1,11,0,2,0)
    ShowMessageFace("",0,0,2,22)
    ShowMessage("Affection       500:\\ia[1002]")
    ShowMessage("Affection     2000:\\ia[1003]")
    ShowMessage("Affection     4000:\\ia[1268]")
    ShowMessage("Affection     4000:\\ia[1248]")
    0()
   EndIf()
   If(1,11,0,3,0)
    PictureClear(5)
    ShowMessageFace("",0,0,2,23)
    ShowMessage("Ask her for what? (Affection:\\V[3309])")
    ShowChoices(strings("Paizuri(Affection:10)","Reverse Rape(Affection:100)","Never mind"),3)
    IfPlayerPicksChoice(0,null)
     If(1,3309,0,10,1)
      355("call_novel_scene(5361)")
      EndEventProcessing()
      0()
     Else()
      ShowMessageFace("manta_fc1",0,0,2,24)
      ShowMessage("\\n<オーシャン (Affection:\\V[3309])>まだだ！")
      0()
     EndIf()
     0()
    IfPlayerPicksChoice(1,null)
     If(1,3309,0,100,1)
      355("call_novel_scene(5362)")
      EndEventProcessing()
      0()
     Else()
      ShowMessageFace("manta_fc1",0,0,2,25)
      ShowMessage("\\n<オーシャン (Affection:\\V[3309])>まだだ！")
      0()
     EndIf()
     0()
    IfPlayerPicksChoice(2,null)
     0()
    404()
    0()
   EndIf()
   If(1,11,0,4,1)
    PictureClear(5)
    EndEventProcessing()
    0()
   EndIf()
   0()
  EndLoop()
  0()
 PAGE   2
  // condition: party contains actor #309
  0()



EVENT   61
 PAGE   1
  RunCommonEvent(120)
  0()



EVENT   62
 PAGE   1
  // condition: variable 1083 >= 2
  If(0,1159,0)
   ShowMessageFace("ironmaiden_fc1",0,0,2,1)
   ShowMessage("\\n<メイデン>……………………")
   0()
  Else()
   ShowMessageFace("ironmaiden_fc1",0,0,2,2)
   ShowMessage("\\n<アイアンメイデン>……………………")
   0()
  EndIf()
  0()
 PAGE   2
  // condition: variable 1083 >= 3
  0()



EVENT   63
 PAGE   1
  // condition: variable 1083 >= 2
  ShowMessageFace("ningyohime_fc1",2,0,2,1)
  ShowMessage("\\n<エル>人魚の血は、どんな怪我も癒やす薬……")
  ShowMessage("こうするしかないよね！")
  If(0,1159,0)
   ShowMessageFace("ironmaiden_fc1",0,0,2,2)
   ShowMessage("\\n<メイデン>……………………")
   0()
  Else()
   ShowMessageFace("ironmaiden_fc1",0,0,2,3)
   ShowMessage("\\n<アイアンメイデン>……………………")
   0()
  EndIf()
  ShowMessageFace("ningyohime_fc1",2,0,2,4)
  ShowMessage("\\n<エル>……よし、行くよ！　や～っ！")
  205(0,bytes(0x04,0x08,0x6f,0x3a,0x13,0x52,0x50,0x47,0x3a,0x3a,0x4d,0x6f,0x76,0x65,0x52,0x6f,0x75,0x74,0x65,0x09,0x3a,0x0c,0x40,0x72,0x65,0x70,0x65,0x61,0x74,0x46,0x3a,0x0f,0x40,0x73,0x6b,0x69,0x70,0x70,0x61,0x62,0x6c,0x65,0x46,0x3a,0x0a,0x40,0x77,0x61,0x69,0x74,0x54,0x3a,0x0a,0x40,0x6c,0x69,0x73,0x74,0x5b,0x0a,0x6f,0x3a,0x15,0x52,0x50,0x47,0x3a,0x3a,0x4d,0x6f,0x76,0x65,0x43,0x6f,0x6d,0x6d,0x61,0x6e,0x64,0x07,0x3a,0x0a,0x40,0x63,0x6f,0x64,0x65,0x69,0x2a,0x3a,0x10,0x40,0x70,0x61,0x72,0x61,0x6d,0x65,0x74,0x65,0x72,0x73,0x5b,0x00,0x6f,0x3b,0x0a,0x07,0x3b,0x0b,0x69,0x29,0x3b,0x0c,0x5b,0x00,0x6f,0x3b,0x0a,0x07,0x3b,0x0b,0x69,0x09,0x3b,0x0c,0x5b,0x00,0x6f,0x3b,0x0a,0x07,0x3b,0x0b,0x69,0x2c,0x3b,0x0c,0x5b,0x00,0x6f,0x3b,0x0a,0x07,0x3b,0x0b,0x69,0x00,0x3b,0x0c,0x5b,0x00))
  250(bytes(0x04,0x08,0x6f,0x3a,0x0c,0x52,0x50,0x47,0x3a,0x3a,0x53,0x45,0x08,0x3a,0x0a,0x40,0x6e,0x61,0x6d,0x65,0x49,0x22,0x0e,0x6d,0x6f,0x6e,0x5f,0x64,0x6f,0x6f,0x72,0x32,0x06,0x3a,0x06,0x45,0x54,0x3a,0x0b,0x40,0x70,0x69,0x74,0x63,0x68,0x69,0x69,0x3a,0x0c,0x40,0x76,0x6f,0x6c,0x75,0x6d,0x65,0x69,0x55))
  241(bytes(0x04,0x08,0x6f,0x3a,0x0d,0x52,0x50,0x47,0x3a,0x3a,0x42,0x47,0x4d,0x08,0x3a,0x0a,0x40,0x6e,0x61,0x6d,0x65,0x49,0x22,0x10,0x73,0x63,0x65,0x6e,0x65,0x5f,0x63,0x6f,0x6d,0x69,0x32,0x06,0x3a,0x06,0x45,0x54,0x3a,0x0c,0x40,0x76,0x6f,0x6c,0x75,0x6d,0x65,0x69,0x69,0x3a,0x0b,0x40,0x70,0x69,0x74,0x63,0x68,0x69,0x69))
  ShowMessageFace("ningyohime_fc2",0,0,2,5)
  ShowMessage("\\n<エル>……ひゃぁん！　何、これぇ……！？　")
  ShowMessage("中、トゲトゲじゃなかったよぉ……！！")
  If(0,1159,0)
   ShowMessageFace("ironmaiden_fc1",0,0,2,6)
   ShowMessage("\\n<メイデン>……………………")
   0()
  Else()
   ShowMessageFace("ironmaiden_fc1",0,0,2,7)
   ShowMessage("\\n<アイアンメイデン>……………………")
   0()
  EndIf()
  ShowMessageFace("ningyohime_fc2",0,0,2,8)
  ShowMessage("\\n<エル>触手がにゅるにゅるだよぉ……！！")
  ShowMessage("だめ、だめぇ……やだ、やだぁぁぁ……！！")
  250(bytes(0x04,0x08,0x6f,0x3a,0x0c,0x52,0x50,0x47,0x3a,0x3a,0x53,0x45,0x08,0x3a,0x0a,0x40,0x6e,0x61,0x6d,0x65,0x49,0x22,0x0e,0x6d,0x6f,0x6e,0x5f,0x64,0x6f,0x6f,0x72,0x32,0x06,0x3a,0x06,0x45,0x54,0x3a,0x0b,0x40,0x70,0x69,0x74,0x63,0x68,0x69,0x69,0x3a,0x0c,0x40,0x76,0x6f,0x6c,0x75,0x6d,0x65,0x69,0x55))
  205(0,bytes(0x04,0x08,0x6f,0x3a,0x13,0x52,0x50,0x47,0x3a,0x3a,0x4d,0x6f,0x76,0x65,0x52,0x6f,0x75,0x74,0x65,0x09,0x3a,0x0c,0x40,0x72,0x65,0x70,0x65,0x61,0x74,0x46,0x3a,0x0f,0x40,0x73,0x6b,0x69,0x70,0x70,0x61,0x62,0x6c,0x65,0x46,0x3a,0x0a,0x40,0x77,0x61,0x69,0x74,0x54,0x3a,0x0a,0x40,0x6c,0x69,0x73,0x74,0x5b,0x08,0x6f,0x3a,0x15,0x52,0x50,0x47,0x3a,0x3a,0x4d,0x6f,0x76,0x65,0x43,0x6f,0x6d,0x6d,0x61,0x6e,0x64,0x07,0x3a,0x0a,0x40,0x63,0x6f,0x64,0x65,0x69,0x2d,0x3a,0x10,0x40,0x70,0x61,0x72,0x61,0x6d,0x65,0x74,0x65,0x72,0x73,0x5b,0x00,0x6f,0x3b,0x0a,0x07,0x3b,0x0b,0x69,0x13,0x3b,0x0c,0x5b,0x07,0x69,0x00,0x69,0x06,0x6f,0x3b,0x0a,0x07,0x3b,0x0b,0x69,0x00,0x3b,0x0c,0x5b,0x00))
  ShowMessageFace("ningyohime_fc1",1,0,2,9)
  ShowMessage("\\n<エル>はぅぅ……すごかったよぉ……")
  If(0,4,0)
   ShowMessageFace("alice_fc5",5,0,2,10)
   ShowMessage("\\n<Alice>いったい、何をしているのだ……？")
   0()
  EndIf()
  If(0,5,0)
   ShowMessageFace("iriasu_fc4",2,0,2,11)
   ShowMessage("\\n<Ilias>いったい、何をしているのです……？")
   0()
  EndIf()
  205(0,bytes(0x04,0x08,0x6f,0x3a,0x13,0x52,0x50,0x47,0x3a,0x3a,0x4d,0x6f,0x76,0x65,0x52,0x6f,0x75,0x74,0x65,0x09,0x3a,0x0c,0x40,0x72,0x65,0x70,0x65,0x61,0x74,0x46,0x3a,0x0f,0x40,0x73,0x6b,0x69,0x70,0x70,0x61,0x62,0x6c,0x65,0x46,0x3a,0x0a,0x40,0x77,0x61,0x69,0x74,0x54,0x3a,0x0a,0x40,0x6c,0x69,0x73,0x74,0x5b,0x07,0x6f,0x3a,0x15,0x52,0x50,0x47,0x3a,0x3a,0x4d,0x6f,0x76,0x65,0x43,0x6f,0x6d,0x6d,0x61,0x6e,0x64,0x07,0x3a,0x0a,0x40,0x63,0x6f,0x64,0x65,0x69,0x1e,0x3a,0x10,0x40,0x70,0x61,0x72,0x61,0x6d,0x65,0x74,0x65,0x72,0x73,0x5b,0x00,0x6f,0x3b,0x0a,0x07,0x3b,0x0b,0x69,0x00,0x3b,0x0c,0x5b,0x00))
  ShowMessageFace("ningyohime_fc1",6,0,2,12)
  ShowMessage("\\n<エル>ナタリア大陸の人達、あたしのせいで怪我したでしょ？")
  ShowMessage("だから、人魚の血を薬として送ろうと思って……")
  If(0,6,0)
   ShowMessageFace("sonia_fc2",2,0,2,13)
   ShowMessage("\\n<Sonya>それで、アイアンメイデンを使って……")
   ShowMessage("中、トゲトゲだと思ってたのね。")
   0()
  Else()
   ShowMessageFace("ruka_fc1",0,0,2,14)
   ShowMessage("\\n<Luka>それで、アイアンメイデンを使って……")
   ShowMessage("中、トゲトゲだと思ってたんだね。")
   0()
  EndIf()
  241(bytes(0x04,0x08,0x6f,0x3a,0x0d,0x52,0x50,0x47,0x3a,0x3a,0x42,0x47,0x4d,0x08,0x3a,0x0a,0x40,0x6e,0x61,0x6d,0x65,0x49,0x22,0x08,0x75,0x6d,0x69,0x06,0x3a,0x06,0x45,0x54,0x3a,0x0c,0x40,0x76,0x6f,0x6c,0x75,0x6d,0x65,0x69,0x69,0x3a,0x0b,0x40,0x70,0x69,0x74,0x63,0x68,0x69,0x69))
  ShowMessageFace("ningyohime_fc1",2,0,2,15)
  ShowMessage("\\n<エル>うん……なんとかして、いっぱい血を出さないと。")
  ShowMessage("あたしは次期女王だから、人魚族を代表して償いをするの。")
  If(0,4,0)
   ShowMessageFace("alice_fc5",2,0,2,16)
   ShowMessage("\\n<Alice>貴様の贖罪の方法は、誤っているぞ。")
   ShowMessage("人魚の血をもらうなど、人間としても受け入れがたいだろうな。")
   0()
  EndIf()
  If(0,5,0)
   ShowMessageFace("iriasu_fc4",2,0,2,17)
   ShowMessage("\\n<Ilias>あなたの贖罪の方法は、間違っていますよ。")
   ShowMessage("人魚の血を薬にするなど、人間の心情的に抵抗があるでしょう。")
   0()
  EndIf()
  ShowMessageFace("ningyohime_fc1",6,0,2,18)
  ShowMessage("\\n<エル>なら、どうしたらいいかなぁ……？")
  ShowMessageFace("ruka_fc1",0,0,2,19)
  ShowMessage("\\n<Luka>薬の事なら、クィーンアルラウネに聞いてみるのはどうかな？")
  ShowMessage("今から一緒に行こう。")
  ShowMessageFace("ningyohime_fc1",3,0,2,20)
  ShowMessage("\\n<エル>ありがとう、それじゃあ行こうよ！")
  205(0,bytes(0x04,0x08,0x6f,0x3a,0x13,0x52,0x50,0x47,0x3a,0x3a,0x4d,0x6f,0x76,0x65,0x52,0x6f,0x75,0x74,0x65,0x09,0x3a,0x0c,0x40,0x72,0x65,0x70,0x65,0x61,0x74,0x46,0x3a,0x0f,0x40,0x73,0x6b,0x69,0x70,0x70,0x61,0x62,0x6c,0x65,0x46,0x3a,0x0a,0x40,0x77,0x61,0x69,0x74,0x54,0x3a,0x0a,0x40,0x6c,0x69,0x73,0x74,0x5b,0x09,0x6f,0x3a,0x15,0x52,0x50,0x47,0x3a,0x3a,0x4d,0x6f,0x76,0x65,0x43,0x6f,0x6d,0x6d,0x61,0x6e,0x64,0x07,0x3a,0x0a,0x40,0x63,0x6f,0x64,0x65,0x69,0x2a,0x3a,0x10,0x40,0x70,0x61,0x72,0x61,0x6d,0x65,0x74,0x65,0x72,0x73,0x5b,0x00,0x6f,0x3b,0x0a,0x07,0x3b,0x0b,0x69,0x0f,0x3b,0x0c,0x5b,0x00,0x6f,0x3b,0x0a,0x07,0x3b,0x0b,0x69,0x2c,0x3b,0x0c,0x5b,0x00,0x6f,0x3b,0x0a,0x07,0x3b,0x0b,0x69,0x00,0x3b,0x0c,0x5b,0x00))
  ChangeVariable(1083,1083,0,0,3)
  355("add_actor_ex(327)")
  249(bytes(0x04,0x08,0x6f,0x3a,0x0c,0x52,0x50,0x47,0x3a,0x3a,0x4d,0x45,0x08,0x3a,0x0a,0x40,0x6e,0x61,0x6d,0x65,0x49,0x22,0x0c,0x66,0x61,0x6e,0x66,0x61,0x6c,0x65,0x06,0x3a,0x06,0x45,0x54,0x3a,0x0b,0x40,0x70,0x69,0x74,0x63,0x68,0x69,0x69,0x3a,0x0c,0x40,0x76,0x6f,0x6c,0x75,0x6d,0x65,0x69,0x69))
  ShowMessageFace("",0,0,2,21)
  ShowMessage("エルが仲間に復帰した！")
  Wait(60)
  0()
 PAGE   2
  // condition: variable 1083 >= 3
  0()



EVENT   64
 PAGE   1
  // condition: switch 1571 is ON
  PictureDisplay(5,"80_mob_kaihei_st01",0,0,0,0,100,100,0,0)
  PictureMove(5,null,0,0,0,0,100,100,255,0,30,true)
  355("actor_label_jump")
  ShowMessageFace("mob_kaihei_fc1",0,0,2,1)
  ShowMessage("\\n<ミリオ (Affection:\\V[3571])>海兵、いっくよ～！")
  ShowMessage("もちろん連れてってくれるんだよね……？")
  JumpToLabel("メニュー")
  DefineLabel("メニュー")
  ShowChoices(strings("Add to party","Battle fuck","Never mind"),3)
  IfPlayerPicksChoice(0,null)
   PictureClear(5)
   355("move_actor_ex(571)")
   EndEventProcessing()
   0()
  IfPlayerPicksChoice(1,null)
   ChangeSwitch(2331,2331,0)
   RunCommonEvent(7211)
   ChangeSwitch(2331,2331,1)
   PictureClear(5)
   241(bytes(0x04,0x08,0x6f,0x3a,0x0d,0x52,0x50,0x47,0x3a,0x3a,0x42,0x47,0x4d,0x08,0x3a,0x0a,0x40,0x6e,0x61,0x6d,0x65,0x49,0x22,0x08,0x75,0x6d,0x69,0x06,0x3a,0x06,0x45,0x54,0x3a,0x0c,0x40,0x76,0x6f,0x6c,0x75,0x6d,0x65,0x69,0x69,0x3a,0x0b,0x40,0x70,0x69,0x74,0x63,0x68,0x69,0x69))
   EndEventProcessing()
   0()
  IfPlayerPicksChoice(2,null)
   PictureClear(5)
   241(bytes(0x04,0x08,0x6f,0x3a,0x0d,0x52,0x50,0x47,0x3a,0x3a,0x42,0x47,0x4d,0x08,0x3a,0x0a,0x40,0x6e,0x61,0x6d,0x65,0x49,0x22,0x08,0x75,0x6d,0x69,0x06,0x3a,0x06,0x45,0x54,0x3a,0x0c,0x40,0x76,0x6f,0x6c,0x75,0x6d,0x65,0x69,0x69,0x3a,0x0b,0x40,0x70,0x69,0x74,0x63,0x68,0x69,0x69))
   EndEventProcessing()
   0()
  404()
  0()
 PAGE   2
  // condition: party contains actor #571
  0()



EVENT   65
 PAGE   1
  // condition: switch 1579 is ON
  PictureDisplay(5,"80_mob_sanzoku_st01",0,0,0,0,100,100,0,0)
  PictureMove(5,null,0,0,0,0,100,100,255,0,30,true)
  355("actor_label_jump")
  ShowMessageFace("mob_sanzoku_fc1",0,0,2,1)
  ShowMessage("\\n<マグダ (Affection:\\V[3579])>あたしゃ山賊だけど、船ってのもいいもんだな！")
  JumpToLabel("メニュー")
  DefineLabel("メニュー")
  ShowChoices(strings("Add to party","Battle fuck","Never mind"),3)
  IfPlayerPicksChoice(0,null)
   PictureClear(5)
   355("move_actor_ex(579)")
   EndEventProcessing()
   0()
  IfPlayerPicksChoice(1,null)
   ChangeSwitch(2331,2331,0)
   RunCommonEvent(7291)
   ChangeSwitch(2331,2331,1)
   PictureClear(5)
   241(bytes(0x04,0x08,0x6f,0x3a,0x0d,0x52,0x50,0x47,0x3a,0x3a,0x42,0x47,0x4d,0x08,0x3a,0x0a,0x40,0x6e,0x61,0x6d,0x65,0x49,0x22,0x08,0x75,0x6d,0x69,0x06,0x3a,0x06,0x45,0x54,0x3a,0x0c,0x40,0x76,0x6f,0x6c,0x75,0x6d,0x65,0x69,0x69,0x3a,0x0b,0x40,0x70,0x69,0x74,0x63,0x68,0x69,0x69))
   EndEventProcessing()
   0()
  IfPlayerPicksChoice(2,null)
   PictureClear(5)
   241(bytes(0x04,0x08,0x6f,0x3a,0x0d,0x52,0x50,0x47,0x3a,0x3a,0x42,0x47,0x4d,0x08,0x3a,0x0a,0x40,0x6e,0x61,0x6d,0x65,0x49,0x22,0x08,0x75,0x6d,0x69,0x06,0x3a,0x06,0x45,0x54,0x3a,0x0c,0x40,0x76,0x6f,0x6c,0x75,0x6d,0x65,0x69,0x69,0x3a,0x0b,0x40,0x70,0x69,0x74,0x63,0x68,0x69,0x69))
   EndEventProcessing()
   0()
  404()
  0()
 PAGE   2
  // condition: party contains actor #579
  0()
